[
  {
    "description": "feat: remove usage of deprecated Snyk CLI Docker images. \nBREAKING CHANGE: Snyk CLI Docker images are now deprecated. \n- Please use tags supported by Snyk Images for the LANGUAGE variable instead. \n- Alternately, users can provide their own base image using the SNYK_BASE_IMAGE variable.",
    "type": "major"
  }
]